// Jest Snapshot v1, https://goo.gl/fbAQLP

exports[`should render Clock component 1`] = `
<div
  class="MuiPaper-root MuiCard-root MuiGrid-root makeStyles-root-1 MuiGrid-item MuiPaper-elevation1 MuiPaper-rounded"
>
  <div
    class="MuiCardHeader-root"
  >
    <div
      class="MuiCardHeader-content"
    >
      <span
        class="MuiTypography-root MuiCardHeader-title MuiTypography-h5 MuiTypography-displayBlock"
      >
        <span>
          Test Clock
        </span>
      </span>
    </div>
    <div
      class="MuiCardHeader-action"
    >
      <button
        aria-label="close"
        class="MuiButtonBase-root MuiIconButton-root"
        tabindex="0"
        type="button"
      >
        <span
          class="MuiIconButton-label"
        >
          <svg
            aria-hidden="true"
            class="MuiSvgIcon-root"
            focusable="false"
            viewBox="0 0 24 24"
          >
            <path
              d="M19 6.41L17.59 5 12 10.59 6.41 5 5 6.41 10.59 12 5 17.59 6.41 19 12 13.41 17.59 19 19 17.59 13.41 12z"
            />
          </svg>
        </span>
      </button>
    </div>
  </div>
  <div
    class="MuiCardContent-root makeStyles-card-2"
  >
    <h2
      class="MuiTypography-root MuiTypography-h2"
    >
      7:00:00 PM
    </h2>
    <h5
      class="MuiTypography-root MuiTypography-h5"
    >
      Wed Dec 31 1969
    </h5>
  </div>
</div>
`;
